{
  "count": 1995,
  "next": "https://api.spaceflightnewsapi.net/v4/blogs/?limit=10&offset=20",
  "previous": "https://api.spaceflightnewsapi.net/v4/blogs/?limit=10&offset=0",
  "results": [
    {
      "id": 2277,
      "title": "United Launch Alliance Precisely Delivers Seventh Amazon Leo Mission",
      "authors": [
        {
          "name": {},
          "socials": {}
        }
      ],
      "url": "https://blog.ulalaunch.com/blog/seventh-amazon-leo-mission",
      "image_url": "https://blog.ulalaunch.com/hubfs/av_leo7_l4_media.jpg",
      "news_site": "United Launch Alliance",
      "summary": "ULA has launched the majority of Amazon Leo satellites on orbit.",
      "published_at": "2026-05-30T01:40:06Z",
      "updated_at": "2026-05-30T01:50:20.401325Z",
      "featured": false,
      "launches": [
        {
          "launch_id": {},
          "provider": {}
        }
      ],
      "events": [
        {
          "event_id": {},
          "provider": {}
        }
      ]
    }
  ]
}