{
  "count": 34380,
  "next": "https://api.spaceflightnewsapi.net/v4/articles/?limit=10&offset=20",
  "previous": "https://api.spaceflightnewsapi.net/v4/articles/?limit=10&offset=0",
  "results": [
    {
      "id": 38168,
      "title": "Live coverage: SpaceX to launch 50th Starlink mission of 2026",
      "authors": [
        {
          "name": {},
          "socials": {}
        }
      ],
      "url": "https://spaceflightnow.com/2026/05/30/live-coverage-spacex-starlink/",
      "image_url": "https://spaceflightnow.com/wp-content/uploads/2025/09/Starlink_Vertical.jpg",
      "news_site": "Spaceflight Now",
      "summary": "The Starlink 17-41 mission is SpaceX's 10th and final launch of May.",
      "published_at": "2026-05-30T13:46:18Z",
      "updated_at": "2026-05-30T13:50:17.306479Z",
      "featured": false,
      "launches": [
        {
          "launch_id": {},
          "provider": {}
        }
      ],
      "events": [
        {
          "event_id": {},
          "provider": {}
        }
      ]
    }
  ]
}