{
  "count": 1415,
  "next": "https://api.spaceflightnewsapi.net/v4/reports/?limit=10&offset=20",
  "previous": "https://api.spaceflightnewsapi.net/v4/reports/?limit=10&offset=0",
  "results": [
    {
      "id": 1662,
      "title": "Starliner arrives safely back on Earth",
      "authors": [
        {
          "name": {},
          "socials": {}
        }
      ],
      "url": "https://starlinerupdates.com/starliner-arrives-safely-back-on-earth/",
      "image_url": "https://boeing-jtti.s3.amazonaws.com/wp-content/uploads/2023/02/docking.png",
      "news_site": "Boeing",
      "summary": "Boeing's Starliner landed safely at 12:01 a.m. Eastern time on Saturday.",
      "published_at": "2024-09-07T04:14:32Z",
      "updated_at": "2024-09-07T04:18:06.656360Z"
    }
  ]
}